4 intersections: x y
0., 0. # 1
1., 0. # 2
1., 1. # 3
0., 1. # 4
/intersections

boundaries: x y theta
1, 1, 0
1, 1, 0
0, 0, 0
0, 0, 0
/boundaries

loads: Fx [N], Fy [N], M [Nm]
0., 0., 0.
0., 0., 0.
100e3, 0., 0.
200e3, 0., 50e6
/loads

3 beams: from to
2 3
3 4
4 1
/beams

beam properties: E [N/mm^2], A [mm^2], Iz [mm^4]. Most properties from IPE240
200000e6 40e-4 3892e-8
200000e6 40e-4 3892e-8
200000e6 40e-4 3892e-8
